Certification
ID			ID HEX		KEY									PAC
13657008	00D063B0	67D0CE6275AAD26D4FC576FF7E4664DB	80B64D2D58A30CFA
13657009	00D063B1	02EEEAFF00CD02C1E8B527F635C9B647	C34D4A6CDF47B2F8
13657010	00D063B2	86A11741CA7643E7B4A5A0F5E5B19A32	B7760600F7D21626
13657011	00D063B3	59132A6ADC20CED2FCB0EEF517FFD7BC	53768FF1E0894F95
13657012	00D063B4	F86C7694F84129F0130413102D507A8D	A5DF45646AD5F66B

Old V1 - ETSI
ID			ID HEX		KEY									PAC
8059249		007AF971	63EBE043F1E6335B42BA3513B581EA9F	607A99B69A69629B
8059250		007AF972	0CAA9E5A7FFAF5C5031CAB0C61445FCA	DF24A94576D610E6
8059251		007AF973	B75B32EA4136D26AADBE6D2BDEB11C27	211F22EFAA75B4BF
8059255		007AF977	01398AB5FC4D1CAB16C52742B19BD889	44B88A0E2DD44B29
8059256		007AF978	93AA02CA3236FB718BF5CA6C0C64260E	8AF79D254A7A591F

Old V1 - FCC
ID			ID HEX		KEY									PAC
5040132		004CE804	AF4F8C3A1BD4AB0BBB7734EE7A97DA5D	A2C87026F14373F9
5040133		004CE805	229BC259DDFE2B97F97988A1D5FB9362	BF586D041AE5D913
5040136		004CE808	38499EE8464ED034F7B8833D6458F124	890CEFD300DDA52A
5040137		004CE809	4AE13630369D9CCDFB5C3BDDA7AB823D	9A20CA565C331A0D
5040140		004CE80C	EE37EEE51434DB50622D36EEB9B72DC8	D3A5DB7D72977410
